Project - Predicting Mortality in ICU Patients
…
hds %>% select(CHLORIDE_min) %>% 
  filter(CHLORIDE_min <=75) %>% 
  count(CHLORIDE_min)

## # A tibble: 22 x 2
##    CHLORIDE_min     n
##           <dbl> <int>
##  1          1.6     1
##  2          1.7     1
##  3          3.4     1
##  4         17       1
##  5         39       1
##  6         56       1
##  7         58       2
##  8         61       3
##  9         62       2
## 10         63       1
## # ... with 12 more rows
…
hds %>% select(GLUCOSE_min) %>% 
  filter(GLUCOSE_min <=70) %>% 
  count(GLUCOSE_min)

## # A tibble: 63 x 2
##    GLUCOSE_min     n
##          <dbl> <int>
##  1        1.15     1
##  2        8        1
##  3        9        2
##  4       10        1
##  5       12        1
##  6       13        1
##  7       14        1
##  8       15        5
##  9       16        4
## 10       17        1
## # ... with 53 more rows
…
hds %>% select(GLUCOSE_max) %>% 
  filter(GLUCOSE_max >=198) %>% 
  count(GLUCOSE_max)

## # A tibble: 718 x 2
##    GLUCOSE_max     n
##          <dbl> <int>
##  1         198   163
##  2         199   180
##  3         200   192
##  4         201   153
##  5         202   167
##  6         203   150
##  7         204   183
##  8         205   171
##  9         206   180
## 10         207   154
## # ... with 708 more rows
…
hds %>% select(HEMATOCRIT_min) %>% 
  filter(HEMATOCRIT_min <=25.5) %>% 
  count(HEMATOCRIT_min)

## # A tibble: 169 x 2
##    HEMATOCRIT_min     n
##             <dbl> <int>
##  1            4       1
##  2            5       1
##  3            5.5     1
##  4            6.5     2
##  5            6.8     1
##  6            7       2
##  7            7.3     1
##  8            8       2
##  9            9       6
## 10            9.1     2
## # ... with 159 more rows

# HEMATOCRIT_max: keep as is
#

summary(hds$HEMATOCRIT_max)

##    Min. 1st Qu.  Median    Mean 3rd Qu.    Max. 
##   11.00   31.30   35.10   35.54   39.40   71.70

hds %>% select(HEMATOCRIT_max) %>% 
  filter(HEMATOCRIT_max >=39.40) %>% 
  count(HEMATOCRIT_max)

## # A tibble: 194 x 2
##    HEMATOCRIT_max     n
##             <dbl> <int>
##  1           39.4   164
##  2           39.5   128
##  3           39.6   146
##  4           39.7   152
##  5           39.8   171
##  6           39.9   152
##  7           40     798
##  8           40.1   150
##  9           40.2   155
## 10           40.3   147
## # ... with 184 more rows
…
hds %>% select(PLATELET_min) %>% 
  filter(PLATELET_min <=136) %>% 
  count(PLATELET_min)

## # A tibble: 133 x 2
##    PLATELET_min     n
##           <dbl> <int>
##  1          5      21
##  2          5.5     1
##  3          6      13
##  4          7      16
##  5          8      15
##  6          9      14
##  7         10      23
##  8         11      22
##  9         12      20
## 10         13      23
## # ... with 123 more rows
…
hds %>% select(PLATELET_max) %>% 
  filter(PLATELET_max >=303) %>% 
  count(PLATELET_max)

## # A tibble: 638 x 2
##    PLATELET_max     n
##           <dbl> <int>
##  1          303   122
##  2          304   106
##  3          305   123
##  4          306    94
##  5          307   105
##  6          308   109
##  7          309   106
##  8          310   114
##  9          311   109
## 10          312   105
## # ... with 628 more rows
…
hds %>% select(POTASSIUM_min) %>% 
  filter(POTASSIUM_min <=3.4) %>% 
  count(POTASSIUM_min)

## # A tibble: 28 x 2
##    POTASSIUM_min     n
##            <dbl> <int>
##  1           0.6     1
##  2           0.7     2
##  3           0.8     1
##  4           0.9     2
##  5           1       1
##  6           1.2     4
##  7           1.3     2
##  8           1.4     5
##  9           1.5     5
## 10           1.6     5
## # ... with 18 more rows
…
hds %>% select(POTASSIUM_max) %>% 
  filter(POTASSIUM_max >=5) %>% 
  count(POTASSIUM_max)

## # A tibble: 75 x 2
##    POTASSIUM_max     n
##            <dbl> <int>
##  1          5     1360
##  2          5.1   1174
##  3          5.2   1169
##  4          5.3    964
##  5          5.4    881
##  6          5.5    750
##  7          5.52     1
##  8          5.6    709
##  9          5.7    608
## 10          5.8    610
## # ... with 65 more rows
…
hds %>% select(SODIUM_min) %>% 
  filter(SODIUM_min <=134) %>% 
  count(SODIUM_min)

## # A tibble: 44 x 2
##    SODIUM_min     n
##         <dbl> <int>
##  1       1.21     1
##  2       3.8      1
##  3      13        1
##  4      74        2
##  5      82        1
##  6      86        1
##  7      95        1
##  8      96        1
##  9      97        1
## 10      98        2
## # ... with 34 more rows
…
hds %>% select(BUN_min) %>% 
  filter(BUN_min >38) %>% 
  count(BUN_min)

## # A tibble: 138 x 2
##    BUN_min     n
##      <dbl> <int>
##  1      39   303
##  2      40   281
##  3      41   274
##  4      42   243
##  5      43   246
##  6      44   243
##  7      45   225
##  8      46   210
##  9      47   225
## 10      48   190
## # ... with 128 more rows
…
hds %>% select(HeartRate_Min) %>% 
  filter(HeartRate_Min <61) %>% 
  count(HeartRate_Min)

## # A tibble: 57 x 2
##    HeartRate_Min     n
##            <dbl> <int>
##  1         0.350     1
##  2         1         1
##  3         2         2
##  4         3         1
##  5         3.40      1
##  6         5         1
##  7         6         1
##  8         7         1
##  9         7.60      1
## 10        11         1
## # ... with 47 more rows
…
hds %>% select(SysBP_Min) %>% 
  filter(SysBP_Min <82) %>% 
  count(SysBP_Min)

## # A tibble: 85 x 2
##    SysBP_Min     n
##        <dbl> <int>
##  1     0.300     1
##  2     0.350     1
##  3     0.450     1
##  4     0.5       1
##  5     0.900     2
##  6     1        12
##  7     2         5
##  8     3         4
##  9     4         4
## 10     6         1
## # ... with 75 more rows
…
##    Min. 1st Qu.  Median    Mean 3rd Qu.    Max. 
##    0.32   37.00   44.00   43.94   51.00  103.00

#DiasBP_Max: very high but keep as is could be anything like post-stroke dysautonomia etc

summary(hds$DiasBP_Max)

##    Min. 1st Qu.  Median    Mean 3rd Qu.    Max. 
##   29.00   72.00   82.00   84.01   93.00  298.00

hds %>% select(DiasBP_Max) %>% 
  filter(DiasBP_Max >92) %>% 
  count(DiasBP_Max)

## # A tibble: 133 x 2
##    DiasBP_Max     n
##         <dbl> <int>
##  1         93   769
##  2         94   759
##  3         95   727
##  4         96   724
##  5         97   676
##  6         98   606
##  7         99   622
##  8        100   474
##  9        101   438
## 10        102   397
## # ... with 123 more rows
…
##    Min. 1st Qu.  Median    Mean 3rd Qu.    Max. 
##     1.0    10.0    12.0    12.4    15.0    35.0

# RespRate_Max: keep as is- very high but possible

summary(hds$RespRate_Max)

##    Min. 1st Qu.  Median    Mean 3rd Qu.    Max. 
##    8.00   23.00   26.00   27.23   30.00   69.00

hds %>% select(RespRate_Max) %>% 
  filter(RespRate_Max >15) %>% 
  count(RespRate_Max)

## # A tibble: 54 x 2
##    RespRate_Max     n
##           <dbl> <int>
##  1           16   242
##  2           17   375
##  3           18   853
##  4           19  1159
##  5           20  2141
##  6           21  2328
##  7           22  3210
##  8           23  3220
##  9           24  3748
## 10           25  3451
## # ... with 44 more rows
…
